Aug 24, 2018 1:43:52 PM ManufacturingTests$4 actionPerformed
SEVERE: ------------------------------------------------------------------------------------
Aug 24, 2018 1:43:52 PM ManufacturingTests$4 actionPerformed
SEVERE:                            REPORT FILE
Aug 24, 2018 1:43:52 PM ManufacturingTests$4 actionPerformed
SEVERE: ------------------------------------------------------------------------------------
Aug 24, 2018 1:43:52 PM ManufacturingTests$4 actionPerformed
SEVERE: Date			2018/08/24
Aug 24, 2018 1:43:52 PM ManufacturingTests$4 actionPerformed
SEVERE: Test Started at		13:43:52
Aug 24, 2018 1:43:52 PM ManufacturingTests$4 actionPerformed
INFO: Board Number		L11_BOARD_0000
Aug 24, 2018 1:43:52 PM ManufacturingTests$4 actionPerformed
SEVERE: Firmware Version	
Aug 24, 2018 1:43:52 PM ManufacturingTests$4 actionPerformed
SEVERE: ------------------------------------------------------------------------------------
Aug 24, 2018 1:43:52 PM ManufacturingTests$4 actionPerformed
SEVERE:                       TEST CONFIGURATION
Aug 24, 2018 1:43:52 PM ManufacturingTests$4 actionPerformed
SEVERE: ------------------------------------------------------------------------------------
Aug 24, 2018 1:43:52 PM ManufacturingTests$4 actionPerformed
SEVERE: 
LIGHTENGINE-TEST	SELECTED
IRISMODULE-TEST		SELECTED
FAN-TEST		SELECTED
EXTERNALCAMFEED-TEST	SELECTED
UARTLOOPBACK-TEST	SELECTED
OPTICFIBER-TEST		SELECTED
ESST-TEST		SELECTED
ASST-TEST		SELECTED

Aug 24, 2018 1:43:52 PM ManufacturingTests$4 actionPerformed
SEVERE: ------------------------------------------------------------------------------------
Aug 24, 2018 1:43:52 PM ManufacturingTests$4 actionPerformed
SEVERE:                         TEST LOGS
Aug 24, 2018 1:43:52 PM ManufacturingTests$4 actionPerformed
SEVERE: ------------------------------------------------------------------------------------
Aug 24, 2018 1:43:53 PM bg_worker doInBackground
INFO: 

Test			uC1COMTEST
Aug 24, 2018 1:43:55 PM bg_worker$3 run
SEVERE: Result			Timeout


Aug 24, 2018 1:43:55 PM bg_worker$3 run
SEVERE: ------------------------------------------------------------------------------------
Aug 24, 2018 1:43:55 PM bg_worker doInBackground
INFO: 

Test			uC2COMTEST
Aug 24, 2018 1:43:55 PM bg_worker$3 run
SEVERE: ------------------------------------------------------------------------------------
Aug 24, 2018 1:43:57 PM bg_worker$3 run
SEVERE: Result			Timeout


Aug 24, 2018 1:43:57 PM bg_worker doInBackground
INFO: 

Test			IPCTEST
Aug 24, 2018 1:43:57 PM bg_worker$3 run
SEVERE: ------------------------------------------------------------------------------------
Aug 24, 2018 1:43:57 PM bg_worker$3 run
SEVERE: ------------------------------------------------------------------------------------
Aug 24, 2018 1:43:58 PM ManufacturingTests$4 actionPerformed
INFO: <######----------------PAUSED---------------#######>
Aug 24, 2018 1:44:07 PM ManufacturingTests$5$1 doInBackground
INFO: <######----------------STOPPED---------------#######>
Aug 24, 2018 1:44:08 PM ManufacturingTests$5$1 process
INFO: ------------------------------------------------------------------------------------
Aug 24, 2018 1:44:08 PM ManufacturingTests$5$1 process
INFO: #########################  END OF REPORT  ##################################
Aug 24, 2018 1:44:10 PM ManufacturingTests$5$1 doInBackground
INFO: <######----------------STOPPED---------------#######>
Aug 24, 2018 1:44:10 PM ManufacturingTests$5$1 process
INFO: ------------------------------------------------------------------------------------
Aug 24, 2018 1:44:10 PM ManufacturingTests$5$1 process
INFO: #########################  END OF REPORT  ##################################
Aug 24, 2018 1:44:35 PM ManufacturingTests$4 actionPerformed
INFO: <######----------------RUNNING---------------#######>
