Jul 12, 2018 5:26:55 PM ManufacturingTests$4 actionPerformed
SEVERE: ------------------------------------------------------------------------------------
Jul 12, 2018 5:26:55 PM ManufacturingTests$4 actionPerformed
SEVERE:                            REPORT FILE
Jul 12, 2018 5:26:55 PM ManufacturingTests$4 actionPerformed
SEVERE: ------------------------------------------------------------------------------------
Jul 12, 2018 5:26:55 PM ManufacturingTests$4 actionPerformed
SEVERE: Date			2018/07/12
Jul 12, 2018 5:26:55 PM ManufacturingTests$4 actionPerformed
SEVERE: Test Started at		17:26:55
Jul 12, 2018 5:26:55 PM ManufacturingTests$4 actionPerformed
INFO: Board Number		L11_BOARD_0000
Jul 12, 2018 5:26:55 PM ManufacturingTests$4 actionPerformed
SEVERE: Firmware Version	
Jul 12, 2018 5:26:55 PM ManufacturingTests$4 actionPerformed
SEVERE: ------------------------------------------------------------------------------------
Jul 12, 2018 5:26:55 PM ManufacturingTests$4 actionPerformed
SEVERE:                       TEST CONFIGURATION
Jul 12, 2018 5:26:55 PM ManufacturingTests$4 actionPerformed
SEVERE: ------------------------------------------------------------------------------------
Jul 12, 2018 5:26:55 PM ManufacturingTests$4 actionPerformed
SEVERE: LIGHTENGINE-TEST	DESELECTED
Jul 12, 2018 5:26:55 PM ManufacturingTests$4 actionPerformed
SEVERE: IRISMODULE-TEST		SELECTED
Jul 12, 2018 5:26:55 PM ManufacturingTests$4 actionPerformed
SEVERE: FAN-TEST		DESELECTED
Jul 12, 2018 5:26:55 PM ManufacturingTests$4 actionPerformed
SEVERE: EXTERNALCAMFEED-TEST	DESELECTED
Jul 12, 2018 5:26:55 PM ManufacturingTests$4 actionPerformed
SEVERE: UARTLOOPBACK-TEST	DESELECTED
Jul 12, 2018 5:26:55 PM ManufacturingTests$4 actionPerformed
SEVERE: OPTICFIBER-TEST		DESELECTED
Jul 12, 2018 5:26:55 PM ManufacturingTests$4 actionPerformed
SEVERE: ESST-TEST		DESELECTED
Jul 12, 2018 5:26:55 PM ManufacturingTests$4 actionPerformed
SEVERE: ASST-TEST		DESELECTED
Jul 12, 2018 5:26:55 PM ManufacturingTests$4 actionPerformed
SEVERE: ------------------------------------------------------------------------------------
Jul 12, 2018 5:26:55 PM ManufacturingTests$4 actionPerformed
SEVERE:                         TEST LOGS
Jul 12, 2018 5:26:55 PM ManufacturingTests$4 actionPerformed
SEVERE: ------------------------------------------------------------------------------------
Jul 12, 2018 5:26:57 PM bg_worker doInBackground
INFO: 

Test			PDTEST-IRIS1-0%
Jul 12, 2018 5:27:00 PM bg_worker$1 run
SEVERE: Result			Fail
Jul 12, 2018 5:27:00 PM bg_worker$1 run
SEVERE: Expected Value --> 	Voltage : 0 V	(+/- 25%)
Jul 12, 2018 5:27:00 PM bg_worker$1 run
SEVERE: Observed Value --> 	Voltage : 0.614270 V


Jul 12, 2018 5:27:00 PM bg_worker$1 run
SEVERE: ------------------------------------------------------------------------------------
Jul 12, 2018 5:27:00 PM bg_worker doInBackground
INFO: 

Test			PDTEST-IRIS1-100%
Jul 12, 2018 5:27:03 PM bg_worker$1 run
SEVERE: Result			Fail
Jul 12, 2018 5:27:03 PM bg_worker$1 run
SEVERE: Expected Value --> 	Voltage : 0.8 V	(+/- 25%)
Jul 12, 2018 5:27:03 PM bg_worker$1 run
SEVERE: Observed Value --> 	Voltage : 0.637450 V


Jul 12, 2018 5:27:03 PM bg_worker$1 run
SEVERE: ------------------------------------------------------------------------------------
Jul 12, 2018 5:27:03 PM bg_worker doInBackground
INFO: 

Test			PDTEST-IRIS2-0%
Jul 12, 2018 5:27:06 PM bg_worker$1 run
SEVERE: Result			Fail
Jul 12, 2018 5:27:06 PM bg_worker$1 run
SEVERE: Expected Value --> 	Voltage : 0 V	(+/- 25%)
Jul 12, 2018 5:27:06 PM bg_worker$1 run
SEVERE: Observed Value --> 	Voltage : 0.631960 V


Jul 12, 2018 5:27:06 PM bg_worker$1 run
SEVERE: ------------------------------------------------------------------------------------
Jul 12, 2018 5:27:06 PM bg_worker doInBackground
INFO: 

Test			PDTEST-IRIS2-100%
Jul 12, 2018 5:27:09 PM bg_worker$1 run
SEVERE: Result			Fail
Jul 12, 2018 5:27:09 PM bg_worker$1 run
SEVERE: Expected Value --> 	Voltage : 0.8 V	(+/- 25%)
Jul 12, 2018 5:27:09 PM bg_worker$1 run
SEVERE: Observed Value --> 	Voltage : 0.648430 V


Jul 12, 2018 5:27:09 PM bg_worker$1 run
SEVERE: ------------------------------------------------------------------------------------
Jul 12, 2018 5:27:09 PM bg_worker process
INFO: ------------------------------------------------------------------------------------
Jul 12, 2018 5:27:09 PM bg_worker process
INFO: #########################  END OF REPORT  ##################################
Jul 12, 2018 5:32:17 PM ManufacturingTests$4 actionPerformed
INFO: <######----------------RUNNING---------------#######>
