Jul 12, 2018 5:32:17 PM ManufacturingTests$4 actionPerformed
SEVERE: ------------------------------------------------------------------------------------
Jul 12, 2018 5:32:17 PM ManufacturingTests$4 actionPerformed
SEVERE:                            REPORT FILE
Jul 12, 2018 5:32:17 PM ManufacturingTests$4 actionPerformed
SEVERE: ------------------------------------------------------------------------------------
Jul 12, 2018 5:32:17 PM ManufacturingTests$4 actionPerformed
SEVERE: Date			2018/07/12
Jul 12, 2018 5:32:17 PM ManufacturingTests$4 actionPerformed
SEVERE: Test Started at		17:32:17
Jul 12, 2018 5:32:17 PM ManufacturingTests$4 actionPerformed
INFO: Board Number		L11_BOARD_0000
Jul 12, 2018 5:32:17 PM ManufacturingTests$4 actionPerformed
SEVERE: Firmware Version	v2.0.1
Jul 12, 2018 5:32:17 PM ManufacturingTests$4 actionPerformed
SEVERE: ------------------------------------------------------------------------------------
Jul 12, 2018 5:32:17 PM ManufacturingTests$4 actionPerformed
SEVERE:                       TEST CONFIGURATION
Jul 12, 2018 5:32:17 PM ManufacturingTests$4 actionPerformed
SEVERE: ------------------------------------------------------------------------------------
Jul 12, 2018 5:32:17 PM ManufacturingTests$4 actionPerformed
SEVERE: LIGHTENGINE-TEST	SELECTED
Jul 12, 2018 5:32:17 PM ManufacturingTests$4 actionPerformed
SEVERE: IRISMODULE-TEST		SELECTED
Jul 12, 2018 5:32:17 PM ManufacturingTests$4 actionPerformed
SEVERE: FAN-TEST		DESELECTED
Jul 12, 2018 5:32:17 PM ManufacturingTests$4 actionPerformed
SEVERE: EXTERNALCAMFEED-TEST	DESELECTED
Jul 12, 2018 5:32:17 PM ManufacturingTests$4 actionPerformed
SEVERE: UARTLOOPBACK-TEST	DESELECTED
Jul 12, 2018 5:32:17 PM ManufacturingTests$4 actionPerformed
SEVERE: OPTICFIBER-TEST		DESELECTED
Jul 12, 2018 5:32:17 PM ManufacturingTests$4 actionPerformed
SEVERE: ESST-TEST		DESELECTED
Jul 12, 2018 5:32:17 PM ManufacturingTests$4 actionPerformed
SEVERE: ASST-TEST		DESELECTED
Jul 12, 2018 5:32:17 PM ManufacturingTests$4 actionPerformed
SEVERE: ------------------------------------------------------------------------------------
Jul 12, 2018 5:32:17 PM ManufacturingTests$4 actionPerformed
SEVERE:                         TEST LOGS
Jul 12, 2018 5:32:17 PM ManufacturingTests$4 actionPerformed
SEVERE: ------------------------------------------------------------------------------------
Jul 12, 2018 5:32:19 PM bg_worker$3 run
SEVERE: Result			Timeout


Jul 12, 2018 5:32:19 PM bg_worker$3 run
SEVERE: ------------------------------------------------------------------------------------
Jul 12, 2018 5:32:19 PM bg_worker$3 run
SEVERE: ------------------------------------------------------------------------------------
Jul 12, 2018 5:32:29 PM ManufacturingTests$4 actionPerformed
INFO: <######----------------RUNNING---------------#######>
